{
  "project_info": {
    "project_number": "702217747864",
    "firebase_url": "https://fir-realtime-database-e99e8-default-rtdb.firebaseio.com",
    "project_id": "fir-realtime-database-e99e8",
    "storage_bucket": "fir-realtime-database-e99e8.appspot.com"
  },
  "client": [
    {
      "client_info": {
        "mobilesdk_app_id": "1:702217747864:android:79a60cd2e5037d530ebfed",
        "android_client_info": {
          "package_name": "com.rnatomic"
        }
      },
      "oauth_client": [
        {
          "client_id": "702217747864-e1mttbag3ie2t7mdomibpgviaf9o8h83.apps.googleusercontent.com",
          "client_type": 3
        }
      ],
      "api_key": [
        {
          "current_key": "AIzaSyA_uJ2La-Xrw3Vig2fgyIELEEYHakqItcw"
        }
      ],
      "services": {
        "appinvite_service": {
          "other_platform_oauth_client": [
            {
              "client_id": "702217747864-e1mttbag3ie2t7mdomibpgviaf9o8h83.apps.googleusercontent.com",
              "client_type": 3
            }
          ]
        }
      }
    },
    {
      "client_info": {
        "mobilesdk_app_id": "1:702217747864:android:6bfb8a9ce05444cd0ebfed",
        "android_client_info": {
          "package_name": "com.todolist"
        }
      },
      "oauth_client": [
        {
          "client_id": "702217747864-e1mttbag3ie2t7mdomibpgviaf9o8h83.apps.googleusercontent.com",
          "client_type": 3
        }
      ],
      "api_key": [
        {
          "current_key": "AIzaSyA_uJ2La-Xrw3Vig2fgyIELEEYHakqItcw"
        }
      ],
      "services": {
        "appinvite_service": {
          "other_platform_oauth_client": [
            {
              "client_id": "702217747864-e1mttbag3ie2t7mdomibpgviaf9o8h83.apps.googleusercontent.com",
              "client_type": 3
            }
          ]
        }
      }
    }
  ],
  "configuration_version": "1"
}